<svg width="25" height="25" viewBox="0 0 25 25" fill="none" xmlns="http://www.w3.org/2000/svg">
<g clip-path="url(#clip0_365_205)">
<path d="M24.0495 19.2146C21.8233 22.6871 17.9333 24.9903 13.5046 24.9999C6.6436 25.0148 1.01006 19.465 0.927101 12.6045C0.849074 6.14931 5.64502 0.797899 11.8659 0.00131647C11.9989 -0.0157245 12.0855 0.136375 12.0047 0.243309C10.5047 2.22871 9.61548 4.70063 9.61548 7.38086C9.61548 13.9269 14.9219 19.2333 21.4679 19.2333C22.2982 19.2333 23.1082 19.1481 23.8901 18.9855C24.0214 18.9582 24.1218 19.1017 24.0495 19.2146Z" fill="black"/>
</g>
<defs>
<clipPath id="clip0_365_205">
<rect width="25" height="25" fill="white"/>
</clipPath>
</defs>
</svg>
